ENERGY-EFFICIENT-BUILDINGS
…
ASHI SRIVASTAVA

30/05/2021

#view dataset {r}all domain knowledge is here

#installing package 'readxl' to import excel file
#calling the packages
library("readxl")
library(ggplot2)
#storing ENB2012_data in the variable ds
ds=read_excel("C:/Users/ashi/Downloads/ENB2012_data.xlsx")
ds

## # A tibble: 768 x 10
##       X1    X2    X3    X4    X5    X6    X7    X8    Y1    Y2
##    <dbl> <dbl> <dbl> <dbl> <dbl> <dbl> <dbl> <dbl> <dbl> <dbl>
##  1  0.98  514.  294   110.     7     2     0     0  15.6  21.3
##  2  0.98  514.  294   110.     7     3     0     0  15.6  21.3
##  3  0.98  514.  294   110.     7     4     0     0  15.6  21.3
##  4  0.98  514.  294   110.     7     5     0     0  15.6  21.3
##  5  0.9   564.  318.  122.     7     2     0     0  20.8  28.3
##  6  0.9   564.  318.  122.     7     3     0     0  21.5  25.4
##  7  0.9   564.  318.  122.     7     4     0     0  20.7  25.2
##  8  0.9   564.  318.  122.     7     5     0     0  19.7  29.6
##  9  0.86  588   294   147      7     2     0     0  19.5  27.3
## 10  0.86  588   294   147      7     3     0     0  20.0  22.0
## # ... with 758 more rows
…
